{
  "kind": "collectionType",
  "collectionName": "event_heroes",
  "info": {
    "singularName": "event-hero",
    "pluralName": "event-heroes",
    "displayName": "Event Hero",
    "description": ""
  },
  "options": {
    "draftAndPublish": true
  },
  "pluginOptions": {},
  "attributes": {
    "events": {
      "type": "component",
      "repeatable": true,
      "component": "slideshow.events",
      "max": 5,
      "min": 2
    }
  }
}
