{
  "kind": "collectionType",
  "collectionName": "supported_socials",
  "info": {
    "singularName": "supported-social",
    "pluralName": "supported-socials",
    "displayName": "Supported Social",
    "description": ""
  },
  "options": {
    "draftAndPublish": false
  },
  "pluginOptions": {},
  "attributes": {
    "name": {
      "type": "string",
      "required": true
    }
  }
}
