{
  "kind": "collectionType",
  "collectionName": "clubs",
  "info": {
    "singularName": "club",
    "pluralName": "clubs",
    "displayName": "Club",
    "description": ""
  },
  "options": {
    "draftAndPublish": false
  },
  "pluginOptions": {},
  "attributes": {
    "name": {
      "type": "string",
      "required": true
    },
    "type": {
      "type": "enumeration",
      "enum": [
        "Loisirs",
        "Scientifique",
        "Artistique",
        "Jeux"
      ],
      "required": true
    },
    "description": {
      "type": "text",
      "required": true
    },
    "cover": {
      "type": "media",
      "multiple": false,
      "required": false,
      "allowedTypes": [
        "images"
      ]
    },
    "links": {
      "type": "component",
      "repeatable": true,
      "component": "links.social"
    },
    "membres": {
      "type": "integer",
      "min": 0
    },
    "localisation": {
      "type": "string"
    }
  }
}
